[
	{
		"id": 9,
		"name": "Layer 1",
		"layerFrame": {
			"x": 0,
			"y": 0,
			"width": 350,
			"height": 398
		},
		"maskFrame": null,
		"image": {
			"path": "images/Layer 1.png",
			"frame": {
				"x": 0,
				"y": 100,
				"width": 350,
				"height": 298
			}
		},
		"imageType": "png",
		"children": [
			
		],
		"modification": "988045448"
	}
]