Could not read previous export (for caching), doing full export.
Layer 1: Exporting image
1 views changed
Success: /home/cc/cs160/fa14/class/cs160-am/Documents/PROG 03 Host - Watch.framer/imported/Derive Host Watch 01-01
